{
"data": [
    {
      "securitycode": "BONDS",
      "securitydesc": "13.00% TRY REPUBLIC OF TURKEY BS 13-11-2019",
      "asset_class_code": "BONDS",
      "maturity_date": "13-11-2019",
      "currency": "TRY",
      "lotsize": "200/1",
      "coupon_type": "NONE",
      "rating1": "NONE",
      "rating2": "NONE",
      "rating3": "NONE",
      "offer_price": "96.48556428",
      "bid_price": "96.45602082",
      "offer_yield": "25.47592587",
      "isin": "TRT131119T19",
      "company": "REPUBLIC OF TURKEY",
      "security_description": "TURKGB 13 11/13/19"
    },
    {
      "securitycode": "BONDS",
      "securitydesc": "2.38% USD STATE OF QATAR BS 02-06-2021",
      "asset_class_code": "BONDS",
      "maturity_date": "06-02-2021",
      "currency": "USD",
      "lotsize": "200/1",
      "coupon_type": "NONE",
      "rating1": "AA-",
      "rating2": "NONE",
      "rating3": "NONE",
      "offer_price": "99.64350836",
      "bid_price": "99.64300512",
      "offer_yield": "2.572669857",
      "isin": "XS1405781698",
      "company": "STATE OF QATAR",
      "security_description": "QATAR 2 3/8 06/02/21"
    },
    {
      "securitycode": "BONDS QAR",
      "securitydesc": "2.75% QAR STATE OF QATAR BSQ 18-10-2021",
      "asset_class_code": "BONDS",
      "maturity_date": "18-10-2021",
      "currency": "QAR",
      "lotsize": "200/1",
      "coupon_type": "NONE",
      "rating1": "AA-",
      "rating2": "NONE",
      "rating3": "NONE",
      "offer_price": "99.06474522",
      "bid_price": "99.06363777",
      "offer_yield": "3.186635172",
      "isin": "QA000A7U1YY0",
      "company": "STATE OF QATAR",
      "security_description": "QATGB 2 3/4 10/18/21"
    },
    {
      "securitycode": "BONDS",
      "securitydesc": "2.88% USD US GOVT. BS 31-10-2020",
      "asset_class_code": "BONDS",
      "maturity_date": "31-10-2020",
      "currency": "USD",
      "lotsize": "200/1",
      "coupon_type": "NONE",
      "rating1": "AAA",
      "rating2": "NONE",
      "rating3": "NONE",
      "offer_price": "100.0581972",
      "bid_price": "100.0583464",
      "offer_yield": "2.819736142",
      "isin": "US9128285G14",
      "company": "US GOVT.",
      "security_description": "T 2 7/8 10/31/20"
    },
    {
      "securitycode": "BONDS",
      "securitydesc": "27.50% TRY EUROPEAN BANK FOR RECONSTRUCTION & DEVELOPMENT BS 02-10-2019",
      "asset_class_code": "BONDS",
      "maturity_date": "10-02-2019",
      "currency": "TRY",
      "lotsize": "200/1",
      "coupon_type": "NONE",
      "rating1": "AAA",
      "rating2": "NONE",
      "rating3": "NONE",
      "offer_price": "98.24711566",
      "bid_price": "98.22686725",
      "offer_yield": "30.59831968",
      "isin": "XS1891679547",
      "company": "EUROPEAN BANK FOR RECONSTRUCTION & DEVELOPMENT",
      "security_description": "EBRD 27 1/2 10/02/19"
    },
    {
      "securitycode": "BONDS",
      "securitydesc": "3.25% USD STATE OF QATAR BS 02-06-2026",
      "asset_class_code": "BONDS",
      "maturity_date": "06-02-2026",
      "currency": "USD",
      "lotsize": "100/1",
      "coupon_type": "NONE",
      "rating1": "AA-",
      "rating2": "NONE",
      "rating3": "NONE",
      "offer_price": "98.8918881",
      "bid_price": "98.89152136",
      "offer_yield": "3.432429492",
      "isin": "XS1405782159",
      "company": "STATE OF QATAR",
      "security_description": "QATAR 3 1/4 06/02/26"
    },
    {
      "securitycode": "BONDS",
      "securitydesc": "3.50% USD INTERNATIONAL BANK OF QATAR QS BS 25-11-2020",
      "asset_class_code": "BONDS",
      "maturity_date": "25-11-2020",
      "currency": "USD",
      "lotsize": "100/1",
      "coupon_type": "NONE",
      "rating1": "AA-",
      "rating2": "NONE",
      "rating3": "NONE",
      "offer_price": "99.97633045",
      "bid_price": "99.97631699",
      "offer_yield": "3.51571645",
      "isin": "XS1325770722",
      "company": "INTERNATIONAL BANK OF QATAR QS",
      "security_description": "INTBOQ 3 1/2 11/25/20"
    },
    {
      "securitycode": "BONDS",
      "securitydesc": "3.50% USD QNB FINANCE LTD BS 28-03-2024",
      "asset_class_code": "BONDS",
      "maturity_date": "28-03-2024",
      "currency": "USD",
      "lotsize": "100/1",
      "coupon_type": "NONE",
      "rating1": "A",
      "rating2": "NONE",
      "rating3": "NONE",
      "offer_price": "99.19183658",
      "bid_price": "99.19137091",
      "offer_yield": "3.689043909",
      "isin": "XS1970690829",
      "company": "QNB FINANCE LTD",
      "security_description": "QNBK 3 1/2 03/28/24"
    },
    {
      "securitycode": "BONDS QAR",
      "securitydesc": "3.75% QAR STATE OF QATAR BSQ 16-01-2024",
      "asset_class_code": "BONDS",
      "maturity_date": "16-01-2024",
      "currency": "QAR",
      "lotsize": "100/1",
      "coupon_type": "NONE",
      "rating1": "AA-",
      "rating2": "NONE",
      "rating3": "NONE",
      "offer_price": "99.30418978",
      "bid_price": "99.30389172",
      "offer_yield": "3.920890072",
      "isin": "QA000QQVC3U4",
      "company": "STATE OF QATAR",
      "security_description": "QATGB 3 3/4 01/16/24"
    },
    {
      "securitycode": "BONDS",
      "securitydesc": "3.75% USD OOREDOO QPSC BS 22-06-2026",
      "asset_class_code": "BONDS",
      "maturity_date": "22-06-2026",
      "currency": "USD",
      "lotsize": "100/1",
      "coupon_type": "NONE",
      "rating1": "A-",
      "rating2": "NONE",
      "rating3": "NONE",
      "offer_price": "101.6816185",
      "bid_price": "101.6822748",
      "offer_yield": "3.47360651",
      "isin": "XS1435374126",
      "company": "OOREDOO QPSC",
      "security_description": "QTELQD 3 3/4 06/22/26"
    },
    {
      "securitycode": "BONDS",
      "securitydesc": "3.75% USD YES BANK IFSC BANKING BS 06-02-2023",
      "asset_class_code": "BONDS",
      "maturity_date": "02-06-2023",
      "currency": "USD",
      "lotsize": "100/1",
      "coupon_type": "NONE",
      "rating1": "NONE",
      "rating2": "NONE",
      "rating3": "NONE",
      "offer_price": "97.09020944",
      "bid_price": "97.08799399",
      "offer_yield": "4.653563907",
      "isin": "XS1756056229",
      "company": "YES BANK IFSC BANKING",
      "security_description": "YESIN 3 3/4 02/06/23"
    },
    {
      "securitycode": "BONDS",
      "securitydesc": "3.88% USD AFRICA FINANCE CORP BS 13-04-2024",
      "asset_class_code": "BONDS",
      "maturity_date": "13-04-2024",
      "currency": "USD",
      "lotsize": "100/1",
      "coupon_type": "NONE",
      "rating1": "NONE",
      "rating2": "NONE",
      "rating3": "NONE",
      "offer_price": "98.25333726",
      "bid_price": "98.25239454",
      "offer_yield": "4.286988743",
      "isin": "XS1598047550",
      "company": "AFRICA FINANCE CORP",
      "security_description": "AFRFIN 3 7/8 04/13/24"
    },
    {
      "securitycode": "BONDS",
      "securitydesc": "3.88% USD EMIRATES AIRLINE BS 19-03-2023",
      "asset_class_code": "BONDS",
      "maturity_date": "19-03-2023",
      "currency": "USD",
      "lotsize": "100/1",
      "coupon_type": "NONE",
      "rating1": "NONE",
      "rating2": "NONE",
      "rating3": "NONE",
      "offer_price": "88.65353178",
      "bid_price": "88.65316181",
      "offer_yield": "4.021068718",
      "isin": "XS0904232310",
      "company": "EMIRATES AIRLINE",
      "security_description": "EMIRAT 3 7/8 03/19/23"
    },
    {
      "securitycode": "BONDS",
      "securitydesc": "3.88% USD OOREDOO QPSC BS 31-01-2028",
      "asset_class_code": "BONDS",
      "maturity_date": "31-01-2028",
      "currency": "USD",
      "lotsize": "100/1",
      "coupon_type": "NONE",
      "rating1": "A-",
      "rating2": "NONE",
      "rating3": "NONE",
      "offer_price": "98.14917715",
      "bid_price": "98.1485674",
      "offer_yield": "4.135123413",
      "isin": "XS0880134258",
      "company": "OOREDOO QPSC",
      "security_description": "QTELQD 3 7/8 01/31/28"
    },
    {
      "securitycode": "BONDS",
      "securitydesc": "3.88% USD RURAL ELECTRIFICATION CORP LTD BS 07-07-2027",
      "asset_class_code": "BONDS",
      "maturity_date": "07-07-2027",
      "currency": "USD",
      "lotsize": "100/1",
      "coupon_type": "NONE",
      "rating1": "BBB-",
      "rating2": "NONE",
      "rating3": "NONE",
      "offer_price": "93.37405677",
      "bid_price": "93.37226093",
      "offer_yield": "4.890939632",
      "isin": "XS1641477119",
      "company": "RURAL ELECTRIFICATION CORP LTD",
      "security_description": "RECLIN 3 7/8 07/07/27"
    },
    {
      "securitycode": "BONDS",
      "securitydesc": "3.88% USD STATE OF QATAR BS 23-04-2023",
      "asset_class_code": "BONDS",
      "maturity_date": "23-04-2023",
      "currency": "USD",
      "lotsize": "100/1",
      "coupon_type": "NONE",
      "rating1": "AA-",
      "rating2": "NONE",
      "rating3": "NONE",
      "offer_price": "99.88044061",
      "bid_price": "99.88035864",
      "offer_yield": "3.908300164",
      "isin": "XS1806502453",
      "company": "STATE OF QATAR",
      "security_description": "QATAR 3 7/8 04/23/23"
    },
    {
      "securitycode": "BONDS",
      "securitydesc": "4.00% USD AKBANK TURK AS BS 24-01-2020",
      "asset_class_code": "BONDS",
      "maturity_date": "24-01-2020",
      "currency": "USD",
      "lotsize": "100/1",
      "coupon_type": "NONE",
      "rating1": "BB+",
      "rating2": "NONE",
      "rating3": "NONE",
      "offer_price": "99.9331063",
      "bid_price": "99.93296202",
      "offer_yield": "4.137138759",
      "isin": "XS1111101314",
      "company": "AKBANK TURK AS",
      "security_description": "AKBNK 4 01/24/20"
    },
    {
      "securitycode": "BONDS",
      "securitydesc": "4.00% USD OIL INDIA LTD BS 21-04-2027",
      "asset_class_code": "BONDS",
      "maturity_date": "21-04-2027",
      "currency": "USD",
      "lotsize": "100/1",
      "coupon_type": "NONE",
      "rating1": "BBB-",
      "rating2": "NONE",
      "rating3": "NONE",
      "offer_price": "99.65913589",
      "bid_price": "99.65902765",
      "offer_yield": "4.0510077",
      "isin": "XS1565437487",
      "company": "OIL INDIA LTD",
      "security_description": "OINLIN 4 04/21/27"
    },
    {
      "securitycode": "BONDS",
      "securitydesc": "4.00% USD STATE OF QATAR BS 14-03-2029",
      "asset_class_code": "BONDS",
      "maturity_date": "14-03-2029",
      "currency": "USD",
      "lotsize": "50/2",
      "coupon_type": "NONE",
      "rating1": "AA-",
      "rating2": "NONE",
      "rating3": "NONE",
      "offer_price": "102.6664431",
      "bid_price": "102.6670395",
      "offer_yield": "3.668476093",
      "isin": "XS1959337582",
      "company": "STATE OF QATAR",
      "security_description": "QATAR 4 03/14/29"
    },
    {
      "securitycode": "BONDS",
      "securitydesc": "4.25% USD NTPC LTD BS 26-02-2026",
      "asset_class_code": "BONDS",
      "maturity_date": "26-02-2026",
      "currency": "USD",
      "lotsize": "50/2",
      "coupon_type": "NONE",
      "rating1": "BBB-",
      "rating2": "NONE",
      "rating3": "NONE",
      "offer_price": "99.65942236",
      "bid_price": "99.65921578",
      "offer_yield": "4.309414736",
      "isin": "XS1372846003",
      "company": "NTPC LTD",
      "security_description": "NTPCIN 4 1/4 02/26/26"
    },
    {
      "securitycode": "BONDS",
      "securitydesc": "4.25% USD PELABUHAN INDONESIA II PT BS 05-05-2025",
      "asset_class_code": "BONDS",
      "maturity_date": "05-05-2025",
      "currency": "USD",
      "lotsize": "50/2",
      "coupon_type": "NONE",
      "rating1": "BBB",
      "rating2": "NONE",
      "rating3": "NONE",
      "offer_price": "98.23171563",
      "bid_price": "98.2309889",
      "offer_yield": "4.600972526",
      "isin": "USY7133MAC39",
      "company": "PELABUHAN INDONESIA II PT",
      "security_description": "PLBIIJ 4 1/4 05/05/25"
    },
    {
      "securitycode": "BONDS",
      "securitydesc": "4.38% USD BHARAT PETROLEUM CORP LTD BS 18-01-2027",
      "asset_class_code": "BONDS",
      "maturity_date": "18-01-2027",
      "currency": "USD",
      "lotsize": "50/2",
      "coupon_type": "NONE",
      "rating1": "BBB-",
      "rating2": "NONE",
      "rating3": "NONE",
      "offer_price": "99.96121741",
      "bid_price": "99.96132586",
      "offer_yield": "4.380979529",
      "isin": "XS1548865911",
      "company": "BHARAT PETROLEUM CORP LTD",
      "security_description": "BPCLIN 4 3/8 01/18/27"
    },
    {
      "securitycode": "BONDS",
      "securitydesc": "4.38% USD EZDAN HOLDING GROUP QSC BS 18-05-2021",
      "asset_class_code": "BONDS",
      "maturity_date": "18-05-2021",
      "currency": "USD",
      "lotsize": "50/2",
      "coupon_type": "NONE",
      "rating1": "NONE",
      "rating2": "NONE",
      "rating3": "NONE",
      "offer_price": "99.78096284",
      "bid_price": "99.7806827",
      "offer_yield": "4.499968634",
      "isin": "XS1411381111",
      "company": "EZDAN HOLDING GROUP QSC",
      "security_description": "ERESQD 4 3/8 05/18/21"
    },
    {
      "securitycode": "BONDS",
      "securitydesc": "4.40% USD AUSTRALIA & NEW ZEALAND BANKIN BS 19-05-2026",
      "asset_class_code": "BONDS",
      "maturity_date": "19-05-2026",
      "currency": "USD",
      "lotsize": "50/2",
      "coupon_type": "NONE",
      "rating1": "A+",
      "rating2": "NONE",
      "rating3": "NONE",
      "offer_price": "100.7882003",
      "bid_price": "100.7885133",
      "offer_yield": "4.264559918",
      "isin": "USQ0426RND62",
      "company": "AUSTRALIA & NEW ZEALAND BANKIN",
      "security_description": "ANZ 4.4 05/19/26"
    },
    {
      "securitycode": "BONDS",
      "securitydesc": "4.40% USD REPUBLIC OF INDONESIA BS 01-03-2028",
      "asset_class_code": "BONDS",
      "maturity_date": "03-01-2028",
      "currency": "USD",
      "lotsize": "50/2",
      "coupon_type": "NONE",
      "rating1": "BBB",
      "rating2": "NONE",
      "rating3": "NONE",
      "offer_price": "100.1714561",
      "bid_price": "100.1714227",
      "offer_yield": "4.37533027",
      "isin": "US71567RAK23",
      "company": "REPUBLIC OF INDONESIA",
      "security_description": "INDOIS 4.4 03/01/28"
    },
    {
      "securitycode": "BONDS",
      "securitydesc": "4.50% USD NTPC LTD BS 19-03-2028",
      "asset_class_code": "BONDS",
      "maturity_date": "19-03-2028",
      "currency": "USD",
      "lotsize": "50/2",
      "coupon_type": "NONE",
      "rating1": "AA-",
      "rating2": "NONE",
      "rating3": "NONE",
      "offer_price": "99.33315785",
      "bid_price": "99.33292694",
      "offer_yield": "4.593562626",
      "isin": "XS1792122266",
      "company": "NTPC LTD",
      "security_description": "NTPCIN 4 1/2 03/19/28"
    },
    {
      "securitycode": "BONDS",
      "securitydesc": "4.50% USD OOREDOO QPSC BS 31-01-2043",
      "asset_class_code": "BONDS",
      "maturity_date": "31-01-2043",
      "currency": "USD",
      "lotsize": "50/2",
      "coupon_type": "NONE",
      "rating1": "A-",
      "rating2": "NONE",
      "rating3": "NONE",
      "offer_price": "97.96610453",
      "bid_price": "97.96583433",
      "offer_yield": "4.64301757",
      "isin": "XS0881740384",
      "company": "OOREDOO QPSC",
      "security_description": "QTELQD 4 1/2 01/31/43"
    },
    {
      "securitycode": "BONDS",
      "securitydesc": "4.50% USD STATE OF QATAR BS 23-04-2028",
      "asset_class_code": "BONDS",
      "maturity_date": "23-04-2028",
      "currency": "USD",
      "lotsize": "50/2",
      "coupon_type": "NONE",
      "rating1": "AA-",
      "rating2": "NONE",
      "rating3": "NONE",
      "offer_price": "100.2139879",
      "bid_price": "100.2140416",
      "offer_yield": "4.469293454",
      "isin": "XS1807174393",
      "company": "STATE OF QATAR",
      "security_description": "QATAR 4 1/2 04/23/28"
    },
    {
      "securitycode": "BONDS",
      "securitydesc": "4.63% USD RURAL ELECTRIFICATION CORP LTD BS 22-03-2028",
      "asset_class_code": "BONDS",
      "maturity_date": "22-03-2028",
      "currency": "USD",
      "lotsize": "50/2",
      "coupon_type": "NONE",
      "rating1": "AA-",
      "rating2": "NONE",
      "rating3": "NONE",
      "offer_price": "98.13411528",
      "bid_price": "98.13357699",
      "offer_yield": "4.89114133",
      "isin": "XS1791439257",
      "company": "RURAL ELECTRIFICATION CORP LTD",
      "security_description": "RECLIN 4 5/8 03/22/28"
    },
    {
      "securitycode": "BONDS",
      "securitydesc": "4.63% USD STATE OF QATAR BS 02-06-2046",
      "asset_class_code": "BONDS",
      "maturity_date": "06-02-2046",
      "currency": "USD",
      "lotsize": "50/2",
      "coupon_type": "NONE",
      "rating1": "AA-",
      "rating2": "NONE",
      "rating3": "NONE",
      "offer_price": "103.4811552",
      "bid_price": "103.481402",
      "offer_yield": "4.402360078",
      "isin": "XS1405781854",
      "company": "STATE OF QATAR",
      "security_description": "QATAR 4 5/8 06/02/46"
    },
    {
      "securitycode": "BONDS",
      "securitydesc": "4.75% USD AL KHALIJ COMMERCIAL BANK PQSC BS 09-10-2023",
      "asset_class_code": "BONDS",
      "maturity_date": "10-09-2023",
      "currency": "USD",
      "lotsize": "50/2",
      "coupon_type": "NONE",
      "rating1": "A-",
      "rating2": "NONE",
      "rating3": "NONE",
      "offer_price": "99.72179731",
      "bid_price": "99.72160678",
      "offer_yield": "4.822107507",
      "isin": "XS1891316587",
      "company": "AL KHALIJ COMMERCIAL BANK PQSC",
      "security_description": "ALKHAL 4 3/4 10/09/23"
    },
    {
      "securitycode": "BONDS",
      "securitydesc": "4.82% USD STATE OF QATAR BS 14-03-2049",
      "asset_class_code": "BONDS",
      "maturity_date": "14-03-2049",
      "currency": "USD",
      "lotsize": "50/2",
      "coupon_type": "NONE",
      "rating1": "AA-",
      "rating2": "NONE",
      "rating3": "NONE",
      "offer_price": "100.2300059",
      "bid_price": "100.2299429",
      "offer_yield": "4.802013409",
      "isin": "XS1959337749",
      "company": "STATE OF QATAR",
      "security_description": "QATAR 4.817 03/14/49"
    },
    {
      "securitycode": "BONDS",
      "securitydesc": "4.88% USD EZDAN HOLDING GROUP QSC BS 05-04-2022",
      "asset_class_code": "BONDS",
      "maturity_date": "04-05-2022",
      "currency": "USD",
      "lotsize": "50/2",
      "coupon_type": "NONE",
      "rating1": "NONE",
      "rating2": "NONE",
      "rating3": "NONE",
      "offer_price": "99.7281484",
      "bid_price": "99.72785523",
      "offer_yield": "4.981321445",
      "isin": "XS1590806508",
      "company": "EZDAN HOLDING GROUP QSC",
      "security_description": "ERESQD 4 7/8 04/05/22"
    },
    {
      "securitycode": "BONDS",
      "securitydesc": "5.00% USD OOREDOO QPSC BS 19-10-2025",
      "asset_class_code": "BONDS",
      "maturity_date": "19-10-2025",
      "currency": "USD",
      "lotsize": "50/2",
      "coupon_type": "NONE",
      "rating1": "A-",
      "rating2": "NONE",
      "rating3": "NONE",
      "offer_price": "105.487753",
      "bid_price": "105.4899031",
      "offer_yield": "3.995205082",
      "isin": "XS0551307100",
      "company": "OOREDOO QPSC",
      "security_description": "QTELQD 5 10/19/25"
    },
    {
      "securitycode": "BONDS",
      "securitydesc": "5.10% USD STATE OF QATAR BS 23-04-2048",
      "asset_class_code": "BONDS",
      "maturity_date": "23-04-2048",
      "currency": "USD",
      "lotsize": "50/2",
      "coupon_type": "NONE",
      "rating1": "AA-",
      "rating2": "NONE",
      "rating3": "NONE",
      "offer_price": "102.0312781",
      "bid_price": "102.0313633",
      "offer_yield": "4.968981239",
      "isin": "XS1807174559",
      "company": "STATE OF QATAR",
      "security_description": "QATAR 5.103 04/23/48"
    },
    {
      "securitycode": "BONDS",
      "securitydesc": "5.13% USD AKBANK TAS BS 31-03-2025",
      "asset_class_code": "BONDS",
      "maturity_date": "31-03-2025",
      "currency": "USD",
      "lotsize": "50/2",
      "coupon_type": "NONE",
      "rating1": "B+",
      "rating2": "NONE",
      "rating3": "NONE",
      "offer_price": "87.71994256",
      "bid_price": "87.71516655",
      "offer_yield": "7.826768617",
      "isin": "XS1210422074",
      "company": "AKBANK TAS",
      "security_description": "AKBNK 5 1/8 03/31/25"
    },
    {
      "securitycode": "BONDS",
      "securitydesc": "5.25% USD STATE OF QATAR BS 20-01-2020",
      "asset_class_code": "BONDS",
      "maturity_date": "20-01-2020",
      "currency": "USD",
      "lotsize": "50/2",
      "coupon_type": "NONE",
      "rating1": "NONE",
      "rating2": "NONE",
      "rating3": "NONE",
      "offer_price": "101.120108",
      "bid_price": "101.1266585",
      "offer_yield": "2.897544224",
      "isin": "XS0468534580",
      "company": "STATE OF QATAR",
      "security_description": "QATAR 5 1/4 01/20/20"
    },
    {
      "securitycode": "BONDS",
      "securitydesc": "5.625% USD SULTANATE OF OMAN BS 17-01-2028",
      "asset_class_code": "BONDS",
      "maturity_date": "17-01-2028",
      "currency": "USD",
      "lotsize": "50/2",
      "coupon_type": "NONE",
      "rating1": "NONE",
      "rating2": "NONE",
      "rating3": "NONE",
      "offer_price": "97.39027868",
      "bid_price": "97.38983003",
      "offer_yield": "6.022386681",
      "isin": "XS1750113661",
      "company": "SULTANATE OF OMAN",
      "security_description": "OMAN 5 5/8 01/17/28"
    },
    {
      "securitycode": "BONDS",
      "securitydesc": "5.63% USD NATIONAL BANK OF OMAN SAOG BS 25-09-2023",
      "asset_class_code": "BONDS",
      "maturity_date": "25-09-2023",
      "currency": "USD",
      "lotsize": "50/2",
      "coupon_type": "NONE",
      "rating1": "NONE",
      "rating2": "NONE",
      "rating3": "NONE",
      "offer_price": "102.6765213",
      "bid_price": "102.6780733",
      "offer_yield": "4.90449837",
      "isin": "XS1884006559",
      "company": "NATIONAL BANK OF OMAN SAOG",
      "security_description": "NBOBOM 5 5/8 09/25/23"
    },
    {
      "securitycode": "BONDS",
      "securitydesc": "5.75% USD STATE OF QATAR BS 20-01-2042",
      "asset_class_code": "BONDS",
      "maturity_date": "20-01-2042",
      "currency": "USD",
      "lotsize": "50/2",
      "coupon_type": "NONE",
      "rating1": "AA-",
      "rating2": "NONE",
      "rating3": "NONE",
      "offer_price": "119.7271856",
      "bid_price": "119.7287898",
      "offer_yield": "4.363970649",
      "isin": "XS0615236188",
      "company": "STATE OF QATAR",
      "security_description": "QATAR 5 3/4 01/20/42"
    },
    {
      "securitycode": "BONDS",
      "securitydesc": "5.875% USD TURKIYE GARANTI BANKASI A.S. BS 16-03-2023",
      "asset_class_code": "BONDS",
      "maturity_date": "16-03-2023",
      "currency": "USD",
      "lotsize": "50/2",
      "coupon_type": "NONE",
      "rating1": "NONE",
      "rating2": "NONE",
      "rating3": "NONE",
      "offer_price": "94.27047151",
      "bid_price": "94.26654485",
      "offer_yield": "7.70699417",
      "isin": "XS1576037284",
      "company": "TURKIYE GARANTI BANKASI A.S.",
      "security_description": "GARAN 5.875 03/16/23"
    },
    {
      "securitycode": "BONDS",
      "securitydesc": "6.07% USD NAKILAT INC BS 31-12-2033",
      "asset_class_code": "BONDS",
      "maturity_date": "31-12-2033",
      "currency": "USD",
      "lotsize": "50/2",
      "coupon_type": "NONE",
      "rating1": "AAA",
      "rating2": "NONE",
      "rating3": "NONE",
      "offer_price": "108.4649166",
      "bid_price": "108.4672472",
      "offer_yield": "4.858973542",
      "isin": "USY62014AA64",
      "company": "NAKILAT INC",
      "security_description": "QGTS 6.067 12/31/33"
    },
    {
      "securitycode": "BONDS",
      "securitydesc": "6.13% USD EXPORT CREDIT BANK OF TURKEY BS 06-05-2024",
      "asset_class_code": "BONDS",
      "maturity_date": "05-03-2024",
      "currency": "USD",
      "lotsize": "50/2",
      "coupon_type": "NONE",
      "rating1": "BB-",
      "rating2": "NONE",
      "rating3": "NONE",
      "offer_price": "91.65495568",
      "bid_price": "91.65101239",
      "offer_yield": "8.274092566",
      "isin": "XS1814962582",
      "company": "EXPORT CREDIT BANK OF TURKEY",
      "security_description": "EXCRTU 6 1/8 05/03/24"
    },
    {
      "securitycode": "BONDS",
      "securitydesc": "6.13% USD TURKIYE IS BANKASI A.S BS 25-04-2024",
      "asset_class_code": "BONDS",
      "maturity_date": "25-04-2024",
      "currency": "USD",
      "lotsize": "50/2",
      "coupon_type": "NONE",
      "rating1": "B+",
      "rating2": "NONE",
      "rating3": "NONE",
      "offer_price": "87.46472366",
      "bid_price": "87.45888889",
      "offer_yield": "9.458858662",
      "isin": "XS1578203462",
      "company": "TURKIYE IS BANKASI A.S",
      "security_description": "ISCTR 6 1/8 04/25/24"
    },
    {
      "securitycode": "BONDS",
      "securitydesc": "6.27% USD NAKILAT INC BS 31-12-2033",
      "asset_class_code": "BONDS",
      "maturity_date": "31-12-2033",
      "currency": "USD",
      "lotsize": "50/2",
      "coupon_type": "NONE",
      "rating1": "A-",
      "rating2": "NONE",
      "rating3": "NONE",
      "offer_price": "105.9329389",
      "bid_price": "105.9353305",
      "offer_yield": "5.02289",
      "isin": "USY62014AB48",
      "company": "NAKILAT INC",
      "security_description": "QGTS 6.267 12/31/33"
    },
    {
      "securitycode": "BONDS",
      "securitydesc": "6.40% USD STATE OF QATAR BS 20-01-2040",
      "asset_class_code": "BONDS",
      "maturity_date": "20-01-2040",
      "currency": "USD",
      "lotsize": "50/2",
      "coupon_type": "NONE",
      "rating1": "AA-",
      "rating2": "NONE",
      "rating3": "NONE",
      "offer_price": "128.3466973",
      "bid_price": "128.3492828",
      "offer_yield": "4.303655901",
      "isin": "XS0468535637",
      "company": "STATE OF QATAR",
      "security_description": "QATAR 6.4 01/20/40"
    },
    {
      "securitycode": "BONDS",
      "securitydesc": "6.875% USD QNB FINANSBANK AS BS 07-09-2024",
      "asset_class_code": "BONDS",
      "maturity_date": "09-07-2024",
      "currency": "USD",
      "lotsize": "50/2",
      "coupon_type": "NONE",
      "rating1": "NONE",
      "rating2": "NONE",
      "rating3": "NONE",
      "offer_price": "102.2745115",
      "bid_price": "102.55",
      "offer_yield": "6.346666197",
      "isin": "XS2023703064 ",
      "company": "QNB FINANSBANK AS",
      "security_description": "QNBFB 6.875 09/07/24 1"
    },
    {
      "securitycode": "BONDS",
      "securitydesc": "6.88% USD QNB FINANSBANK AS BS 07-09-2024",
      "asset_class_code": "BONDS",
      "maturity_date": "09-07-2024",
      "currency": "USD",
      "lotsize": "50/2",
      "coupon_type": "NONE",
      "rating1": "BB-",
      "rating2": "NONE",
      "rating3": "NONE",
      "offer_price": "115.1702484",
      "bid_price": "115.1776704",
      "offer_yield": "3.599422238",
      "isin": "XS1959391019",
      "company": "QNB FINANSBANK AS",
      "security_description": "QNBFB 6 7/8 09/07/24"
    },
    {
      "securitycode": "BONDS",
      "securitydesc": "7.40% TRY REPUBLIC OF TURKEY BS 05-02-2020",
      "asset_class_code": "BONDS",
      "maturity_date": "02-05-2020",
      "currency": "TRY",
      "lotsize": "50/2",
      "coupon_type": "NONE",
      "rating1": "B+",
      "rating2": "NONE",
      "rating3": "NONE",
      "offer_price": "91.61659522",
      "bid_price": "91.57507864",
      "offer_yield": "25.14615074",
      "isin": "TRT050220T17",
      "company": "REPUBLIC OF TURKEY",
      "security_description": "TURKGB 7.4 02/05/20"
    },
    {
      "securitycode": "BONDS",
      "securitydesc": "8.13% USD TURKIYE VAKIFLAR BANKASI BS 28-03-2024",
      "asset_class_code": "BONDS",
      "maturity_date": "28-03-2024",
      "currency": "USD",
      "lotsize": "50/2",
      "coupon_type": "NONE",
      "rating1": "B+",
      "rating2": "NONE",
      "rating3": "NONE",
      "offer_price": "96.17298423",
      "bid_price": "96.1710085",
      "offer_yield": "9.144306787",
      "isin": "XS1970705528",
      "company": "TURKIYE VAKIFLAR BANKASI",
      "security_description": "VAKBN 8 1/8 03/28/24"
    },
    {
      "securitycode": "BONDS",
      "securitydesc": "8.75% USD ALTERNATIF BANK AS BS 16-04-2026",
      "asset_class_code": "BONDS",
      "maturity_date": "16-04-2026",
      "currency": "USD",
      "lotsize": "50/2",
      "coupon_type": "NONE",
      "rating1": "B+",
      "rating2": "NONE",
      "rating3": "NONE",
      "offer_price": "94.85478777",
      "bid_price": "94.8472775",
      "offer_yield": "12.12877215",
      "isin": "XS1396282177",
      "company": "ALTERNATIF BANK AS",
      "security_description": "ALNTF 8 3/4 04/16/26"
    },
    {
      "securitycode": "BONDS",
      "securitydesc": "9.40% TRY REPUBLIC OF TURKEY BS 08-07-2020",
      "asset_class_code": "BONDS",
      "maturity_date": "07-08-2020",
      "currency": "TRY",
      "lotsize": "50/2",
      "coupon_type": "NONE",
      "rating1": "B+",
      "rating2": "NONE",
      "rating3": "NONE",
      "offer_price": "91.50979821",
      "bid_price": "91.4885507",
      "offer_yield": "19.54107028",
      "isin": "TRT080720T19",
      "company": "REPUBLIC OF TURKEY",
      "security_description": "TURKGB 9.4 07/08/20"
    },
    {
      "securitycode": "BONDS",
      "securitydesc": "9.75% USD STATE OF QATAR BS 15-06-2030",
      "asset_class_code": "BONDS",
      "maturity_date": "15-06-2030",
      "currency": "USD",
      "lotsize": "50/2",
      "coupon_type": "NONE",
      "rating1": "AA-",
      "rating2": "NONE",
      "rating3": "NONE",
      "offer_price": "145.8986458",
      "bid_price": "145.9079659",
      "offer_yield": "4.397833395",
      "isin": "XS0113419690",
      "company": "STATE OF QATAR",
      "security_description": "QATAR 9 3/4 06/15/30"
    },
    {
      "securitycode": "TREASURY BILL",
      "securitydesc": "0.00% USD US TREASURY TB 07-11-2019",
      "asset_class_code": "GILTS",
      "maturity_date": "11-07-2019",
      "currency": "USD",
      "lotsize": "50/2",
      "coupon_type": "NONE",
      "rating1": "NONE",
      "rating2": "NONE",
      "rating3": "NONE",
      "offer_price": "99.24395997",
      "bid_price": "99.23674584",
      "offer_yield": "2.636998394",
      "isin": "US912796RM33",
      "company": "US TREASURY",
      "security_description": "B 11/07/19"
    }
  ]
}